{
  "modes": [
    {
      "dataEncoding": "simple",
      "name": "nationality",
      "defaultCategory": "{{ graph.nationality.undefined }}",
      "conditionColumn": "narrative",
      "column": "from",
      "colorMap": {
        "{{ graph.nationality.france }}": "#001852",
        "{{ graph.nationality.china }}": "#f6c720",
        "{{ graph.nationality.great_britain }}": "#e01f54",
        "{{ graph.nationality.germany }}": "#c6b38e",
        "{{ graph.nationality.usa }}": "#a4d8c2",
        "{{ graph.nationality.canada }}": "#b8d2c7"
      }
    },
    {
      "dataEncoding": "multi_label",
      "name": "boat",
      "conditionColumn": "narrative",
      "defaultCategory": "{{ graph.boat.none }}",
      "mappings": [
        {
          "category": "Atalante",
          "boolColumn": "boat_Atalante"
        },
        {
          "category": "Bayard",
          "boolColumn": "boat_Bayard"
        },
        {
          "category": "Château-Yquem",
          "boolColumn": "boat_Château-Yquem"
        },
        {
          "category": "Châteaurenault",
          "boolColumn": "boat_Châteaurenault"
        },
        {
          "category": "D'Estaing",
          "boolColumn": "boat_D'Estaing"
        },
        {
          "category": "Drac",
          "boolColumn": "boat_Drac"
        },
        {
          "category": "Jaguar",
          "boolColumn": "boat_Jaguar"
        },
        {
          "category": "{{ graph.boat.kaiji }}",
          "boolColumn": "boat_Kaiji (開濟)"
        },
        {
          "category": "La Galissonière",
          "boolColumn": "boat_La Galissonière"
        },
        {
          "category": "Lynx",
          "boolColumn": "boat_Lynx"
        },
        {
          "category": "Mytho",
          "boolColumn": "boat_Mytho"
        },
        {
          "category": "Nam-Vian",
          "boolColumn": "boat_Nam-Vian"
        },
        {
          "category": "Nielly",
          "boolColumn": "boat_Nielly"
        },
        {
          "category": "Nive",
          "boolColumn": "boat_Nive"
        },
        {
          "category": "Triomphante",
          "boolColumn": "boat_Triomphante"
        },
        {
          "category": "Villars",
          "boolColumn": "boat_Villars"
        },
        {
          "category": "Vipère",
          "boolColumn": "boat_Vipère"
        },
        {
          "category": "Volta",
          "boolColumn": "boat_Volta"
        },
        {
          "category": "{{ graph.boat.yuyuen }}",
          "boolColumn": "boat_Yuyuen (馭遠)"
        },
        {
          "category": "Éclaireur",
          "boolColumn": "boat_Éclaireur"
        },
        {
          "category": "{{ graph.boat.civilian_on_land }}",
          "boolColumn": "boat_Civil à terre"
        },
        {
          "category": "{{ graph.boat.soldier_on_land }}",
          "boolColumn": "boat_Soldat à terre"
        }
      ]
    },
    {
      "dataEncoding": "multi_label",
      "name": "nature",
      "conditionColumn": "narrative",
      "defaultCategory": "{{ graph.nature.none }}",
      "mappings": [
        {
          "category": "{{ graph.nature.memories }}",
          "boolColumn": "narrative_type_memories"
        },
        {
          "category": "{{ graph.nature.diary }}",
          "boolColumn": "narrative_type_diary"
        },
        {
          "category": "{{ graph.nature.letters }}",
          "boolColumn": "narrative_type_letters"
        },
        {
          "category": "{{ graph.nature.science }}",
          "boolColumn": "narrative_type_science"
        }
      ]
    },
    {
      "dataEncoding": "multi_label",
      "name": "publication",
      "conditionColumn": "narrative",
      "defaultCategory": "{{ graph.publication.none }}",
      "mappings": [
        {
          "category": "{{ graph.publication.publication_alive }}",
          "boolColumn": "publication_alive"
        },
        {
          "category": "{{ graph.publication.publication_post }}",
          "boolColumn": "publication_post"
        },
        {
          "category": "{{ graph.publication.never_published }}",
          "boolColumn": "never_published"
        }
      ]
    },
    {
      "dataEncoding": "multi_label",
      "name": "role",
      "conditionColumn": "narrative",
      "defaultCategory": "{{ graph.role.none }}",
      "mappings": [
        {
          "category": "{{ graph.role.medic }}",
          "boolColumn": "role_medic"
        },
        {
          "category": "{{ graph.role.soldier }}",
          "boolColumn": "role_soldier"
        }
      ]
    }
  ]
}
